fr/cnds/bcmtest/runner/Runner.class
fr/cnds/bcmtest/rest/client/SensorTemperature.class
fr/cnds/bcmtest/Region.class
fr/cnds/bcmtest/Point.class
fr/cnds/bcmtest/rest/client/RestClient.class
fr/cnds/bcmtest/RegionTemperatures.class
fr/cnds/bcmtest/RegionFileParser.class
